…
we will use builtin data sets of R for this purpose

``` r
data("ToothGrowth")
data("iris")
```

## 4- To combine different column into another new dataframe, we have to use **bind_cols()** function of *dplyr*

``` r
new_datframe <- as.data.frame(bind_cols(iris[0:50,2:4], ToothGrowth[0:50,2:3]))
tibble(new_datframe) #to view dataset
```

    ## # A tibble: 50 x 5
    ##    Sepal.Width Petal.Length Petal.Width supp   dose
    ##          <dbl>        <dbl>       <dbl> <fct> <dbl>
    ##  1         3.5          1.4         0.2 VC      0.5
    ##  2         3            1.4         0.2 VC      0.5
    ##  3         3.2          1.3         0.2 VC      0.5
    ##  4         3.1          1.5         0.2 VC      0.5
    ##  5         3.6          1.4         0.2 VC      0.5
    ##  6         3.9          1.7         0.4 VC      0.5
    ##  7         3.4          1.4         0.3 VC      0.5
    ##  8         3.4          1.5         0.2 VC      0.5
    ##  9         2.9          1.4         0.2 VC      0.5
    ## 10         3.1          1.5         0.1 VC      0.5
    ## # ... with 40 more rows
…
