…
``` r
library(ggpubr)
```

### Load dataset or import your own data set after setting the working directory in R-studio **(Ctrl+shift+H)**

``` r
data("PlantGrowth")
write_xlsx(PlantGrowth, ".\\PlantGrowth.xlsx") #export excel file
inp_data <- read_excel("PlantGrowth.xlsx") #import excel file from same directory
print(inp_data)
```

    ## # A tibble: 30 x 2
    ##    weight group
    ##     <dbl> <chr>
    ##  1   4.17 ctrl 
    ##  2   5.58 ctrl 
    ##  3   5.18 ctrl 
    ##  4   6.11 ctrl 
    ##  5   4.5  ctrl 
    ##  6   4.61 ctrl 
    ##  7   5.17 ctrl 
    ##  8   4.53 ctrl 
    ##  9   5.33 ctrl 
    ## 10   5.14 ctrl 
    ## # ... with 20 more rows
…
