…
    ## The following objects are masked from 'package:base':
    ## 
    ##     intersect, setdiff, setequal, union

## 1- Load or import your data

We will use the following builtin dataset for this example:

``` r
data("chickwts")
tibble(chickwts) #tibble is a function of dplyr package
```

    ## # A tibble: 71 x 2
    ##    weight feed     
    ##     <dbl> <fct>    
    ##  1    179 horsebean
    ##  2    160 horsebean
    ##  3    136 horsebean
    ##  4    227 horsebean
    ##  5    217 horsebean
    ##  6    168 horsebean
    ##  7    108 horsebean
    ##  8    124 horsebean
    ##  9    143 horsebean
    ## 10    140 horsebean
    ## # ... with 61 more rows
…
