…
    ## The following object is masked from 'package:ggplot2':
    ## 
    ##     theme_grey

## 2- set your r directory in a folder where your data is present, (Ctrl+shift+h)

## 3- import your dataset into R

``` r
inp_data <- read_excel("rice_growth.xlsx", 
                          col_types = c("text", "text", "numeric"))
print(inp_data)
```

    ## # A tibble: 21 x 3
    ##    inoculation variable          value
    ##    <chr>       <chr>             <dbl>
    ##  1 Ctrl        Shoot Length (cm)   4.7
    ##  2 T-1         Shoot Length (cm)   7.7
    ##  3 T-2         Shoot Length (cm)  12.9
    ##  4 T-3         Shoot Length (cm)  14.4
    ##  5 T-4         Shoot Length (cm)  13.5
    ##  6 T-5         Shoot Length (cm)  10.8
    ##  7 T-6         Shoot Length (cm)   7.9
    ##  8 Ctrl        Shoot Length (cm)   6.2
    ##  9 T-1         Shoot Length (cm)   3.5
    ## 10 T-2         Shoot Length (cm)  16.4
    ## # ... with 11 more rows
…
